…
``` r
trees_time_planted = vancouver_trees %>% 
  na.omit(date_planted) %>%
  mutate(year_planted=format(date_planted, format="%Y")) %>% 
  mutate(year_planted = factor(as.integer(year_planted))) %>% 
  arrange(year_planted) %>%
  group_by(year_planted) %>% 
  mutate(mean_dia_yr = mean(diameter))

print(trees_time_planted)
```

    ## # A tibble: 41,859 x 22
    ## # Groups:   year_planted [31]
    ##    tree_id civic_number std_street    genus_name species_name cultivar_name
    ##      <dbl>        <dbl> <chr>         <chr>      <chr>        <chr>        
    ##  1   30343         3621 W 30TH AV     PRUNUS     CERASIFERA   ATROPURPUREUM
    ##  2   30356         3727 W 30TH AV     PRUNUS     CERASIFERA   ATROPURPUREUM
    ##  3   30359         3749 W 30TH AV     PRUNUS     CERASIFERA   ATROPURPUREUM
    ##  4   83393         2888 HIGHBURY ST   PRUNUS     CERASIFERA   ATROPURPUREUM
    ##  5   38849         2198 W 41ST AV     PRUNUS     SERRULATA    KWANZAN      
    ##  6  121796         5003 BOUNDARY ROAD ACER       RUBRUM       RED SUNSET   
    ##  7  121800         5035 BOUNDARY ROAD ACER       RUBRUM       RED SUNSET   
    ##  8  121802         5053 BOUNDARY ROAD ACER       RUBRUM       RED SUNSET   
    ##  9  121808         5097 BOUNDARY ROAD ACER       RUBRUM       RED SUNSET   
    ## 10  121814         3692 WELLINGTON AV ACER       RUBRUM       RED SUNSET   
    ## # ... with 41,849 more rows, and 16 more variables: common_name <chr>,
    ## #   assigned <chr>, root_barrier <chr>, plant_area <chr>,
    ## #   on_street_block <dbl>, on_street <chr>, neighbourhood_name <chr>,
    ## #   street_side_name <chr>, height_range_id <dbl>, diameter <dbl>, curb <chr>,
    ## #   date_planted <date>, longitude <dbl>, latitude <dbl>, year_planted <fct>,
    ## #   mean_dia_yr <dbl>
…
print(species_num)
```

    ## # A tibble: 31 x 6
    ##    species_name   date_planted year_planted n_spec n_spec_prev_year diff_spec
    ##    <chr>          <date>              <int>  <int>            <dbl>     <dbl>
    ##  1 BETULUS        1989-11-30           1989      9                0         9
    ##  2 ACERIFOLIA   X 1990-12-04           1990     33                9        24
    ##  3 ACERIFOLIA   X 1991-03-22           1991     29               33        -4
    ##  4 ACUTISSIMA     1992-11-04           1992     36               29         7
    ##  5 ACERIFOLIA   X 1993-09-14           1993     49               36        13
    ##  6 ACUTISSIMA     1994-11-17           1994     51               49         2
    ##  7 ACERIFOLIA   X 1995-05-03           1995     59               51         8
    ##  8 ACERIFOLIA   X 1996-11-06           1996     69               59        10
    ##  9 ACERIFOLIA   X 1997-03-14           1997     66               69        -3
    ## 10 ACERIFOLIA   X 1998-03-05           1998     83               66        17
    ## # ... with 21 more rows
…
``` r
trees_neigh = vancouver_trees %>% 
  na.omit(date_planted) %>%
  mutate(year_planted=as.integer(format(date_planted, format="%Y"))) %>%
  group_by(neighbourhood_name, year_planted) %>%
  mutate(n_planted = sum(complete.cases(year_planted))) %>%
  ungroup(neighbourhood_name) %>%
  mutate(avg_tree_pl_year = mean(n_planted)) %>% group_by(neighbourhood_name)

print(trees_neigh)
```

    ## # A tibble: 41,859 x 23
    ## # Groups:   neighbourhood_name [22]
    ##    tree_id civic_number std_street    genus_name species_name cultivar_name  
    ##      <dbl>        <dbl> <chr>         <chr>      <chr>        <chr>          
    ##  1  149556          494 W 58TH AV     ULMUS      AMERICANA    BRANDON        
    ##  2  149590          858 E 39TH AV     FRAXINUS   AMERICANA    AUTUMN APPLAUSE
    ##  3  149617         4909 SHERBROOKE ST ACER       PLATANOIDES  COLUMNARE      
    ##  4  149618         4925 SHERBROOKE ST ACER       PLATANOIDES  COLUMNARE      
    ##  5  149619         4969 SHERBROOKE ST ACER       PLATANOIDES  COLUMNARE      
    ##  6  149625          720 E 39TH AV     FRAXINUS   AMERICANA    AUTUMN APPLAUSE
    ##  7  149640         6968 SELKIRK ST    ACER       PLATANOIDES  COLUMNARE      
    ##  8  149673         5241 WINDSOR ST    FRAXINUS   OXYCARPA     RAYWOOD        
    ##  9  149683         7011 SELKIRK ST    ACER       PLATANOIDES  COLUMNARE      
    ## 10  149684         1223 W 54TH AV     ACER       PLATANOIDES  COLUMNARE      
    ## # ... with 41,849 more rows, and 17 more variables: common_name <chr>,
    ## #   assigned <chr>, root_barrier <chr>, plant_area <chr>,
    ## #   on_street_block <dbl>, on_street <chr>, neighbourhood_name <chr>,
    ## #   street_side_name <chr>, height_range_id <dbl>, diameter <dbl>, curb <chr>,
    ## #   date_planted <date>, longitude <dbl>, latitude <dbl>, year_planted <int>,
    ## #   n_planted <int>, avg_tree_pl_year <dbl>
…
print(trees_dia_vs_height)
```

    ## # A tibble: 146,611 x 11
    ## # Groups:   genus_name [97]
    ##    genus_name diameter height_range_id dia_mean dia_max dia_min dia_range
    ##    <chr>         <dbl>           <dbl>    <dbl>   <dbl>   <dbl>     <dbl>
    ##  1 ULMUS          10                 2    22.8    144      1.25     143. 
    ##  2 ZELKOVA        10                 4     6.88    36      0.5       35.5
    ##  3 STYRAX          4                 3     4.10   435      0        435  
    ##  4 FRAXINUS       18                 4     9.51    97.5    0         97.5
    ##  5 ACER            9                 2    10.6    317      0        317  
    ##  6 PYRUS           5                 2     4.58    38      0.25      37.8
    ##  7 ACER           15                 3    10.6    317      0        317  
    ##  8 ACER           14                 3    10.6    317      0        317  
    ##  9 ACER           16                 2    10.6    317      0        317  
    ## 10 FRAXINUS        7.5               2     9.51    97.5    0         97.5
    ## # ... with 146,601 more rows, and 4 more variables: height_mean <dbl>,
    ## #   height_max <dbl>, height_min <dbl>, height_range <dbl>
…
### 2.1 (2.5 points)

Based on the definition above, can you identify if your data is tidy or
untidy? Go through all your columns, or if you have &gt;8 variables,
just pick 8, and explain whether the data is untidy or tidy.

<!--------------------------- Start your work below --------------------------->

``` r
vancouver_trees %>% select(std_street, genus_name, species_name, height_range_id, on_street,date_planted, longitude, latitude)
```

    ## # A tibble: 146,611 x 8
    ##    std_street    genus_name species_name height_range_id on_street     date_planted
    ##    <chr>         <chr>      <chr>                  <dbl> <chr>         <date>      
    ##  1 W 58TH AV     ULMUS      AMERICANA                  2 W 58TH AV     1999-01-13  
    ##  2 W 58TH AV     ZELKOVA    SERRATA                    4 W 58TH AV     1996-05-31  
    ##  3 WINDSOR ST    STYRAX     JAPONICA                   3 WINDSOR ST    1993-11-22  
    ##  4 E 39TH AV     FRAXINUS   AMERICANA                  4 E 39TH AV     1996-04-29  
    ##  5 WINDSOR ST    ACER       CAMPESTRE                  2 WINDSOR ST    1993-12-17  
    ##  6 W 61ST AV     PYRUS      CALLERYANA                 2 W 61ST AV     NA          
    ##  7 SHERBROOKE ST ACER       PLATANOIDES                3 SHERBROOKE ST 1993-12-16  
    ##  8 SHERBROOKE ST ACER       PLATANOIDES                3 SHERBROOKE ST 1993-12-16  
    ##  9 SHERBROOKE ST ACER       PLATANOIDES                2 SHERBROOKE ST 1993-12-16  
    ## 10 E 39TH AV     FRAXINUS   AMERICANA                  2 E 39TH AV     1993-12-03  
    ## # ... with 146,601 more rows, and 2 more variables: longitude <dbl>,
    ## #   latitude <dbl>
…
Be sure to explain your reasoning for this task. Show us the “before”
and “after”.

<!--------------------------- Start your work below --------------------------->

Starting with the data seen above we can look at the data “as is”:

``` r
untidy_data = vancouver_trees %>% 
  select(std_street, genus_name, species_name, height_range_id, on_street,date_planted, longitude, latitude)

print(untidy_data)
```

    ## # A tibble: 146,611 x 8
    ##    std_street    genus_name species_name height_range_id on_street     date_planted
    ##    <chr>         <chr>      <chr>                  <dbl> <chr>         <date>      
    ##  1 W 58TH AV     ULMUS      AMERICANA                  2 W 58TH AV     1999-01-13  
    ##  2 W 58TH AV     ZELKOVA    SERRATA                    4 W 58TH AV     1996-05-31  
    ##  3 WINDSOR ST    STYRAX     JAPONICA                   3 WINDSOR ST    1993-11-22  
    ##  4 E 39TH AV     FRAXINUS   AMERICANA                  4 E 39TH AV     1996-04-29  
    ##  5 WINDSOR ST    ACER       CAMPESTRE                  2 WINDSOR ST    1993-12-17  
    ##  6 W 61ST AV     PYRUS      CALLERYANA                 2 W 61ST AV     NA          
    ##  7 SHERBROOKE ST ACER       PLATANOIDES                3 SHERBROOKE ST 1993-12-16  
    ##  8 SHERBROOKE ST ACER       PLATANOIDES                3 SHERBROOKE ST 1993-12-16  
    ##  9 SHERBROOKE ST ACER       PLATANOIDES                2 SHERBROOKE ST 1993-12-16  
    ## 10 E 39TH AV     FRAXINUS   AMERICANA                  2 E 39TH AV     1993-12-03  
    ## # ... with 146,601 more rows, and 2 more variables: longitude <dbl>,
    ## #   latitude <dbl>
…
``` r
tidy_data = untidy_data %>% 
  separate(date_planted, into = c("year", "month", "day"), sep = "-") %>%
  separate(std_street, into = c("Street Direction","Street Name", "Street Type"), sep = " ", fill = "left")
```

    ## Warning: Expected 3 pieces. Additional pieces discarded in 2010 rows [24, 31,
    ## 32, 58, 59, 60, 84, 108, 138, 142, 143, 341, 379, 380, 381, 429, 430, 431, 439,
    ## 697, ...].

``` r
print(tidy_data)
```

    ## # A tibble: 146,611 x 12
    ##    `Street Direction` `Street Name` `Street Type` genus_name species_name
    ##    <chr>              <chr>         <chr>         <chr>      <chr>       
    ##  1 W                  58TH          AV            ULMUS      AMERICANA   
    ##  2 W                  58TH          AV            ZELKOVA    SERRATA     
    ##  3 <NA>               WINDSOR       ST            STYRAX     JAPONICA    
    ##  4 E                  39TH          AV            FRAXINUS   AMERICANA   
    ##  5 <NA>               WINDSOR       ST            ACER       CAMPESTRE   
    ##  6 W                  61ST          AV            PYRUS      CALLERYANA  
    ##  7 <NA>               SHERBROOKE    ST            ACER       PLATANOIDES 
    ##  8 <NA>               SHERBROOKE    ST            ACER       PLATANOIDES 
    ##  9 <NA>               SHERBROOKE    ST            ACER       PLATANOIDES 
    ## 10 E                  39TH          AV            FRAXINUS   AMERICANA   
    ## # ... with 146,601 more rows, and 7 more variables: height_range_id <dbl>,
    ## #   on_street <chr>, year <chr>, month <chr>, day <chr>, longitude <dbl>,
    ## #   latitude <dbl>

Finally, I will untidy the data back to what it was

``` r
untidied_data = tidy_data %>%
  unite(col="year_planted", c(year, month, day), sep="-", na.rm=FALSE) %>%
  unite(col="std_street", c(`Street Direction`,`Street Name`, `Street Type`), sep = " ", na.rm = TRUE)

print(untidied_data)
```

    ## # A tibble: 146,611 x 8
    ##    std_street    genus_name species_name height_range_id on_street     year_planted
    ##    <chr>         <chr>      <chr>                  <dbl> <chr>         <chr>       
    ##  1 W 58TH AV     ULMUS      AMERICANA                  2 W 58TH AV     1999-01-13  
    ##  2 W 58TH AV     ZELKOVA    SERRATA                    4 W 58TH AV     1996-05-31  
    ##  3 WINDSOR ST    STYRAX     JAPONICA                   3 WINDSOR ST    1993-11-22  
    ##  4 E 39TH AV     FRAXINUS   AMERICANA                  4 E 39TH AV     1996-04-29  
    ##  5 WINDSOR ST    ACER       CAMPESTRE                  2 WINDSOR ST    1993-12-17  
    ##  6 W 61ST AV     PYRUS      CALLERYANA                 2 W 61ST AV     NA-NA-NA    
    ##  7 SHERBROOKE ST ACER       PLATANOIDES                3 SHERBROOKE ST 1993-12-16  
    ##  8 SHERBROOKE ST ACER       PLATANOIDES                3 SHERBROOKE ST 1993-12-16  
    ##  9 SHERBROOKE ST ACER       PLATANOIDES                2 SHERBROOKE ST 1993-12-16  
    ## 10 E 39TH AV     FRAXINUS   AMERICANA                  2 E 39TH AV     1993-12-03  
    ## # ... with 146,601 more rows, and 2 more variables: longitude <dbl>,
    ## #   latitude <dbl>
…
For the next set of analyses I will tidy *vancouver\_trees* and clean it
up so that it is more usable downstream

``` r
tidy_trees = vancouver_trees %>% 
  filter(!is.na(date_planted)) %>%
  separate(date_planted, into = c("year","month", "day"), sep = "-") %>%
  mutate(year = as.integer(year), month = as.integer(month), day = as.integer(day))%>%
  rename(genus = genus_name, species = species_name, neighbourhood = neighbourhood_name, height_range = height_range_id) %>%
  select(genus, species, neighbourhood, diameter, height_range, year)

print(tidy_trees)
```

    ## # A tibble: 70,063 x 6
    ##    genus    species      neighbourhood            diameter height_range  year
    ##    <chr>    <chr>        <chr>                       <dbl>        <dbl> <int>
    ##  1 ULMUS    AMERICANA    MARPOLE                     10               2  1999
    ##  2 ZELKOVA  SERRATA      MARPOLE                     10               4  1996
    ##  3 STYRAX   JAPONICA     KENSINGTON-CEDAR COTTAGE     4               3  1993
    ##  4 FRAXINUS AMERICANA    KENSINGTON-CEDAR COTTAGE    18               4  1996
    ##  5 ACER     CAMPESTRE    KENSINGTON-CEDAR COTTAGE     9               2  1993
    ##  6 ACER     PLATANOIDES  KENSINGTON-CEDAR COTTAGE    15               3  1993
    ##  7 ACER     PLATANOIDES  KENSINGTON-CEDAR COTTAGE    14               3  1993
    ##  8 ACER     PLATANOIDES  KENSINGTON-CEDAR COTTAGE    16               2  1993
    ##  9 FRAXINUS AMERICANA    KENSINGTON-CEDAR COTTAGE     7.5             2  1993
    ## 10 TILIA    EUCHLORA   X KENSINGTON-CEDAR COTTAGE     7.75            2  1993
    ## # ... with 70,053 more rows
…
