…
It would be interesting to see how the diameter relates to the different
species of the trees First I need to find the average diameter per
species. To do this I will create a new coloumn called avg\_diameter

``` r
trees_avg_dia = vancouver_trees %>% 
  group_by(species_name)%>%
  mutate(avg_diameter=mean(diameter, na.rm=TRUE))

trees_avg_dia %>% 
  select(species_name, diameter, avg_diameter)  
```

    ## # A tibble: 146,611 x 3
    ## # Groups:   species_name [283]
    ##    species_name diameter avg_diameter
    ##    <chr>           <dbl>        <dbl>
    ##  1 AMERICANA        10          15.3 
    ##  2 SERRATA          10           6.88
    ##  3 JAPONICA          4           4.15
    ##  4 AMERICANA        18          15.3 
    ##  5 CAMPESTRE         9           8.89
    ##  6 CALLERYANA        5           4.55
    ##  7 PLATANOIDES      15          14.1 
    ##  8 PLATANOIDES      14          14.1 
    ##  9 PLATANOIDES      16          14.1 
    ## 10 AMERICANA         7.5        15.3 
    ## # ... with 146,601 more rows
…
